{
	"credit": "Made with Blockbench by dhi/@Jedi_Modeller",
	"textures": {
		"0": "galaxysedge:items/holocron",
		"1": "galaxysedge:items/holocron2",
		"particle": "galaxysedge:items/holocron"
	},
	"overrides": [
		{
			"predicate" : {
				"starwars:open" : 1
			},
			"model" : "galaxysedge:item/holocron_open"
		}
	],
	"elements": [
		{
			"name": "bo",
			"from": [6.02583, 0, 4.24415],
			"to": [10.02583, 8, 12.24415],
			"rotation": {"angle": 45, "axis": "y", "origin": [8.02583, 4, 8.24415]},
			"faces": {
				"north": {"uv": [4.032, 0.032, 11.968, 15.968], "texture": "#0"},
				"east": {"uv": [0.032, 0.032, 15.968, 15.968], "texture": "#0"},
				"south": {"uv": [4.032, 0.032, 11.968, 15.968], "texture": "#0"},
				"west": {"uv": [0.032, 0.032, 15.968, 15.968], "texture": "#0"},
				"up": {"uv": [4.032, 0.032, 11.968, 15.968], "texture": "#0"},
				"down": {"uv": [4.032, 0.032, 11.968, 15.968], "texture": "#0"}
			}
		},
		{
			"name": "bo",
			"from": [4.02583, 0, 6.24415],
			"to": [12.02583, 8, 10.24415],
			"rotation": {"angle": 45, "axis": "y", "origin": [8.02583, 4, 8.24415]},
			"faces": {
				"north": {"uv": [0.032, 0.032, 15.968, 15.968], "texture": "#0"},
				"east": {"uv": [4.032, 0.032, 11.968, 15.968], "texture": "#0"},
				"south": {"uv": [0.032, 0.032, 15.968, 15.968], "texture": "#0"},
				"west": {"uv": [4.032, 0.032, 11.968, 15.968], "texture": "#0"},
				"up": {"uv": [0.032, 4.032, 15.968, 11.968], "texture": "#0"},
				"down": {"uv": [0.032, 4.032, 15.968, 11.968], "texture": "#0"}
			}
		},
		{
			"name": "bo",
			"from": [4.02583, 2, 4.24415],
			"to": [12.02583, 6, 12.24415],
			"rotation": {"angle": 45, "axis": "y", "origin": [8.02583, 4, 8.24415]},
			"faces": {
				"north": {"uv": [0.032, 4.032, 15.968, 11.968], "texture": "#0"},
				"east": {"uv": [0.032, 4.032, 15.968, 11.968], "texture": "#0"},
				"south": {"uv": [0.032, 4.032, 15.968, 11.968], "texture": "#0"},
				"west": {"uv": [0.032, 4.032, 15.968, 11.968], "texture": "#0"},
				"up": {"uv": [0.032, 0.032, 15.968, 15.968], "texture": "#0"},
				"down": {"uv": [0.032, 0.032, 15.968, 15.968], "texture": "#0"}
			}
		},
		{
			"name": "bo",
			"from": [4.02583, 1, 5.24415],
			"to": [12.02583, 7, 11.24415],
			"rotation": {"angle": 45, "axis": "y", "origin": [8.02583, 4, 8.24415]},
			"faces": {
				"north": {"uv": [0.032, 2.032, 15.968, 13.968], "texture": "#0"},
				"east": {"uv": [2.032, 2.032, 13.968, 13.968], "texture": "#0"},
				"south": {"uv": [0.032, 2.032, 15.968, 13.968], "texture": "#0"},
				"west": {"uv": [2.032, 2.032, 13.968, 13.968], "texture": "#0"},
				"up": {"uv": [0.032, 2.032, 15.968, 13.968], "texture": "#0"},
				"down": {"uv": [0.032, 2.032, 15.968, 13.968], "texture": "#0"}
			}
		},
		{
			"name": "bo",
			"from": [5.02583, 0, 5.24415],
			"to": [11.02583, 8, 11.24415],
			"rotation": {"angle": 45, "axis": "y", "origin": [8.02583, 4, 8.24415]},
			"faces": {
				"north": {"uv": [2.032, 0.032, 13.968, 15.968], "texture": "#0"},
				"east": {"uv": [2.032, 0.032, 13.968, 15.968], "texture": "#0"},
				"south": {"uv": [2.032, 0.032, 13.968, 15.968], "texture": "#0"},
				"west": {"uv": [2.032, 0.032, 13.968, 15.968], "texture": "#0"},
				"up": {"uv": [2.032, 2.032, 13.968, 13.968], "texture": "#0"},
				"down": {"uv": [2.032, 2.032, 13.968, 13.968], "texture": "#0"}
			}
		},
		{
			"name": "bo",
			"from": [5.02583, 1, 4.24415],
			"to": [11.02583, 7, 12.24415],
			"rotation": {"angle": 45, "axis": "y", "origin": [8.02583, 4, 8.24415]},
			"faces": {
				"north": {"uv": [2.032, 2.032, 13.968, 13.968], "texture": "#0"},
				"east": {"uv": [0.032, 2.032, 15.968, 13.968], "texture": "#0"},
				"south": {"uv": [2.032, 2.032, 13.968, 13.968], "texture": "#0"},
				"west": {"uv": [0.032, 2.032, 15.968, 13.968], "texture": "#0"},
				"up": {"uv": [2.032, 0.032, 13.968, 15.968], "texture": "#0"},
				"down": {"uv": [2.032, 0.032, 13.968, 15.968], "texture": "#0"}
			}
		},
		{
			"from": [2.71415, 0, 7.41082],
			"to": [3.71415, 2, 8.41082],
			"rotation": {"angle": 45, "axis": "y", "origin": [3.54748, 0.66667, 8.24415]},
			"faces": {
				"north": {"uv": [14.032, 12.032, 15.968, 15.968], "texture": "#1"},
				"east": {"uv": [13.968, 10.032, 12.032, 13.968], "texture": "#1"},
				"south": {"uv": [12.032, 10.032, 13.968, 13.968], "texture": "#1"},
				"west": {"uv": [0.032, 12.032, 1.968, 15.968], "texture": "#1"},
				"up": {"uv": [10.032, 10.032, 11.968, 11.968], "texture": "#1"},
				"down": {"uv": [14.032, 0.032, 15.968, 1.968], "rotation": 180, "texture": "#1"}
			}
		},
		{
			"from": [3.71415, 0, 7.41082],
			"to": [4.71415, 1, 8.41082],
			"rotation": {"angle": 45, "axis": "y", "origin": [3.54748, 0.66667, 8.24415]},
			"faces": {
				"north": {"uv": [12.032, 14.032, 13.968, 15.968], "texture": "#1"},
				"east": {"uv": [10.032, 14.032, 11.968, 15.968], "texture": "#1"},
				"south": {"uv": [10.032, 12.032, 11.968, 13.968], "rotation": 90, "texture": "#1"},
				"west": {"uv": [0.032, 0.968, 0.968, 0.032], "texture": "#missing"},
				"up": {"uv": [10.032, 12.032, 11.968, 13.968], "texture": "#1"},
				"down": {"uv": [12.032, 0.032, 13.968, 1.968], "rotation": 180, "texture": "#1"}
			}
		},
		{
			"from": [2.71415, 0, 8.41082],
			"to": [3.71415, 1, 9.41082],
			"rotation": {"angle": 45, "axis": "y", "origin": [3.54748, 0.66667, 8.24415]},
			"faces": {
				"north": {"uv": [0.032, 0.968, 0.968, 0.032], "texture": "#missing"},
				"east": {"uv": [10.032, 12.032, 11.968, 13.968], "rotation": 180, "texture": "#1"},
				"south": {"uv": [4.032, 14.032, 5.968, 15.968], "rotation": 270, "texture": "#1"},
				"west": {"uv": [2.032, 14.032, 3.968, 15.968], "texture": "#1"},
				"up": {"uv": [4.032, 12.032, 5.968, 13.968], "rotation": 180, "texture": "#1"},
				"down": {"uv": [14.032, 2.032, 15.968, 3.968], "rotation": 180, "texture": "#1"}
			}
		},
		{
			"from": [2.71415, 6, 7.41082],
			"to": [3.71415, 8, 8.41082],
			"rotation": {"angle": 45, "axis": "y", "origin": [3.54748, 7.33333, 8.24415]},
			"faces": {
				"north": {"uv": [14.032, 15.968, 15.968, 12.032], "texture": "#1"},
				"east": {"uv": [13.968, 13.968, 12.032, 10.032], "texture": "#1"},
				"south": {"uv": [12.032, 13.968, 13.968, 10.032], "texture": "#1"},
				"west": {"uv": [0.032, 15.968, 1.968, 12.032], "texture": "#1"},
				"up": {"uv": [14.032, 1.968, 15.968, 0.032], "rotation": 180, "texture": "#1"},
				"down": {"uv": [10.032, 11.968, 11.968, 10.032], "texture": "#1"}
			}
		},
		{
			"from": [3.71415, 7, 7.41082],
			"to": [4.71415, 8, 8.41082],
			"rotation": {"angle": 45, "axis": "y", "origin": [3.54748, 7.33333, 8.24415]},
			"faces": {
				"north": {"uv": [12.032, 15.968, 13.968, 14.032], "texture": "#1"},
				"east": {"uv": [10.032, 15.968, 11.968, 14.032], "texture": "#1"},
				"south": {"uv": [11.968, 12.032, 10.032, 13.968], "rotation": 90, "texture": "#1"},
				"west": {"uv": [0.032, 0.032, 0.968, 0.968], "texture": "#missing"},
				"up": {"uv": [12.032, 1.968, 13.968, 0.032], "rotation": 180, "texture": "#1"},
				"down": {"uv": [10.032, 13.968, 11.968, 12.032], "texture": "#1"}
			}
		},
		{
			"from": [2.71415, 7, 8.41082],
			"to": [3.71415, 8, 9.41082],
			"rotation": {"angle": 45, "axis": "y", "origin": [3.54748, 7.33333, 8.24415]},
			"faces": {
				"north": {"uv": [0.032, 0.032, 0.968, 0.968], "texture": "#missing"},
				"east": {"uv": [10.032, 13.968, 11.968, 12.032], "rotation": 180, "texture": "#1"},
				"south": {"uv": [5.968, 14.032, 4.032, 15.968], "rotation": 270, "texture": "#1"},
				"west": {"uv": [2.032, 15.968, 3.968, 14.032], "texture": "#1"},
				"up": {"uv": [14.032, 3.968, 15.968, 2.032], "rotation": 180, "texture": "#1"},
				"down": {"uv": [4.032, 13.968, 5.968, 12.032], "rotation": 180, "texture": "#1"}
			}
		},
		{
			"from": [12.3375, 0, 7.41082],
			"to": [13.3375, 2, 8.41082],
			"rotation": {"angle": -45, "axis": "y", "origin": [12.50417, 0.66667, 8.24415]},
			"faces": {
				"north": {"uv": [15.968, 12.032, 14.032, 15.968], "texture": "#1"},
				"east": {"uv": [1.968, 12.032, 0.032, 15.968], "texture": "#1"},
				"south": {"uv": [13.968, 10.032, 12.032, 13.968], "texture": "#1"},
				"west": {"uv": [12.032, 10.032, 13.968, 13.968], "texture": "#1"},
				"up": {"uv": [11.968, 10.032, 10.032, 11.968], "texture": "#1"},
				"down": {"uv": [15.968, 0.032, 14.032, 1.968], "rotation": 180, "texture": "#1"}
			}
		},
		{
			"from": [11.3375, 0, 7.41082],
			"to": [12.3375, 1, 8.41082],
			"rotation": {"angle": -45, "axis": "y", "origin": [12.50417, 0.66667, 8.24415]},
			"faces": {
				"north": {"uv": [13.968, 14.032, 12.032, 15.968], "texture": "#1"},
				"east": {"uv": [0.968, 0.968, 0.032, 0.032], "texture": "#missing"},
				"south": {"uv": [10.032, 13.968, 11.968, 12.032], "rotation": 90, "texture": "#1"},
				"west": {"uv": [11.968, 14.032, 10.032, 15.968], "texture": "#1"},
				"up": {"uv": [11.968, 12.032, 10.032, 13.968], "texture": "#1"},
				"down": {"uv": [13.968, 0.032, 12.032, 1.968], "rotation": 180, "texture": "#1"}
			}
		},
		{
			"from": [12.3375, 0, 8.41082],
			"to": [13.3375, 1, 9.41082],
			"rotation": {"angle": -45, "axis": "y", "origin": [12.50417, 0.66667, 8.24415]},
			"faces": {
				"north": {"uv": [0.968, 0.968, 0.032, 0.032], "texture": "#missing"},
				"east": {"uv": [3.968, 14.032, 2.032, 15.968], "texture": "#1"},
				"south": {"uv": [4.032, 15.968, 5.968, 14.032], "rotation": 270, "texture": "#1"},
				"west": {"uv": [11.968, 12.032, 10.032, 13.968], "rotation": 180, "texture": "#1"},
				"up": {"uv": [5.968, 12.032, 4.032, 13.968], "rotation": 180, "texture": "#1"},
				"down": {"uv": [15.968, 2.032, 14.032, 3.968], "rotation": 180, "texture": "#1"}
			}
		},
		{
			"from": [12.3375, 6, 7.41082],
			"to": [13.3375, 8, 8.41082],
			"rotation": {"angle": -45, "axis": "y", "origin": [12.50417, 7.33333, 8.24415]},
			"faces": {
				"north": {"uv": [15.968, 15.968, 14.032, 12.032], "texture": "#1"},
				"east": {"uv": [1.968, 15.968, 0.032, 12.032], "texture": "#1"},
				"south": {"uv": [13.968, 13.968, 12.032, 10.032], "texture": "#1"},
				"west": {"uv": [12.032, 13.968, 13.968, 10.032], "texture": "#1"},
				"up": {"uv": [15.968, 1.968, 14.032, 0.032], "rotation": 180, "texture": "#1"},
				"down": {"uv": [11.968, 11.968, 10.032, 10.032], "texture": "#1"}
			}
		},
		{
			"from": [11.3375, 7, 7.41082],
			"to": [12.3375, 8, 8.41082],
			"rotation": {"angle": -45, "axis": "y", "origin": [12.50417, 7.33333, 8.24415]},
			"faces": {
				"north": {"uv": [13.968, 15.968, 12.032, 14.032], "texture": "#1"},
				"east": {"uv": [0.968, 0.032, 0.032, 0.968], "texture": "#missing"},
				"south": {"uv": [11.968, 13.968, 10.032, 12.032], "rotation": 90, "texture": "#1"},
				"west": {"uv": [11.968, 15.968, 10.032, 14.032], "texture": "#1"},
				"up": {"uv": [13.968, 1.968, 12.032, 0.032], "rotation": 180, "texture": "#1"},
				"down": {"uv": [11.968, 13.968, 10.032, 12.032], "texture": "#1"}
			}
		},
		{
			"from": [12.3375, 7, 8.41082],
			"to": [13.3375, 8, 9.41082],
			"rotation": {"angle": -45, "axis": "y", "origin": [12.50417, 7.33333, 8.24415]},
			"faces": {
				"north": {"uv": [0.968, 0.032, 0.032, 0.968], "texture": "#missing"},
				"east": {"uv": [3.968, 15.968, 2.032, 14.032], "texture": "#1"},
				"south": {"uv": [5.968, 15.968, 4.032, 14.032], "rotation": 270, "texture": "#1"},
				"west": {"uv": [11.968, 13.968, 10.032, 12.032], "rotation": 180, "texture": "#1"},
				"up": {"uv": [15.968, 3.968, 14.032, 2.032], "rotation": 180, "texture": "#1"},
				"down": {"uv": [5.968, 13.968, 4.032, 12.032], "rotation": 180, "texture": "#1"}
			}
		},
		{
			"from": [7.85916, 0, 2.93247],
			"to": [8.85916, 2, 3.93247],
			"rotation": {"angle": 45, "axis": "y", "origin": [8.02583, 0.66667, 3.76581]},
			"faces": {
				"north": {"uv": [0.032, 12.032, 1.968, 15.968], "texture": "#1"},
				"east": {"uv": [14.032, 12.032, 15.968, 15.968], "texture": "#1"},
				"south": {"uv": [13.968, 10.032, 12.032, 13.968], "texture": "#1"},
				"west": {"uv": [12.032, 10.032, 13.968, 13.968], "texture": "#1"},
				"up": {"uv": [10.032, 10.032, 11.968, 11.968], "rotation": 90, "texture": "#1"},
				"down": {"uv": [14.032, 0.032, 15.968, 1.968], "rotation": 90, "texture": "#1"}
			}
		},
		{
			"from": [7.85916, 0, 3.93247],
			"to": [8.85916, 1, 4.93247],
			"rotation": {"angle": 45, "axis": "y", "origin": [8.02583, 0.66667, 3.76581]},
			"faces": {
				"north": {"uv": [0.032, 0.968, 0.968, 0.032], "texture": "#missing"},
				"east": {"uv": [12.032, 14.032, 13.968, 15.968], "texture": "#1"},
				"south": {"uv": [10.032, 14.032, 11.968, 15.968], "texture": "#1"},
				"west": {"uv": [10.032, 12.032, 11.968, 13.968], "rotation": 90, "texture": "#1"},
				"up": {"uv": [10.032, 12.032, 11.968, 13.968], "rotation": 90, "texture": "#1"},
				"down": {"uv": [12.032, 0.032, 13.968, 1.968], "rotation": 90, "texture": "#1"}
			}
		},
		{
			"from": [6.85916, 0, 2.93247],
			"to": [7.85916, 1, 3.93247],
			"rotation": {"angle": 45, "axis": "y", "origin": [8.02583, 0.66667, 3.76581]},
			"faces": {
				"north": {"uv": [2.032, 14.032, 3.968, 15.968], "texture": "#1"},
				"east": {"uv": [0.032, 0.968, 0.968, 0.032], "texture": "#missing"},
				"south": {"uv": [10.032, 12.032, 11.968, 13.968], "rotation": 180, "texture": "#1"},
				"west": {"uv": [4.032, 14.032, 5.968, 15.968], "rotation": 270, "texture": "#1"},
				"up": {"uv": [4.032, 12.032, 5.968, 13.968], "rotation": 270, "texture": "#1"},
				"down": {"uv": [14.032, 2.032, 15.968, 3.968], "rotation": 90, "texture": "#1"}
			}
		},
		{
			"from": [7.85916, 6, 2.93247],
			"to": [8.85916, 8, 3.93247],
			"rotation": {"angle": 45, "axis": "y", "origin": [8.02583, 7.33333, 3.76581]},
			"faces": {
				"north": {"uv": [0.032, 15.968, 1.968, 12.032], "texture": "#1"},
				"east": {"uv": [14.032, 15.968, 15.968, 12.032], "texture": "#1"},
				"south": {"uv": [13.968, 13.968, 12.032, 10.032], "texture": "#1"},
				"west": {"uv": [12.032, 13.968, 13.968, 10.032], "texture": "#1"},
				"up": {"uv": [14.032, 1.968, 15.968, 0.032], "rotation": 270, "texture": "#1"},
				"down": {"uv": [10.032, 11.968, 11.968, 10.032], "rotation": 270, "texture": "#1"}
			}
		},
		{
			"from": [7.85916, 7, 3.93247],
			"to": [8.85916, 8, 4.93247],
			"rotation": {"angle": 45, "axis": "y", "origin": [8.02583, 7.33333, 3.76581]},
			"faces": {
				"north": {"uv": [0.032, 0.032, 0.968, 0.968], "texture": "#missing"},
				"east": {"uv": [12.032, 15.968, 13.968, 14.032], "texture": "#1"},
				"south": {"uv": [10.032, 15.968, 11.968, 14.032], "texture": "#1"},
				"west": {"uv": [11.968, 12.032, 10.032, 13.968], "rotation": 90, "texture": "#1"},
				"up": {"uv": [12.032, 1.968, 13.968, 0.032], "rotation": 270, "texture": "#1"},
				"down": {"uv": [10.032, 13.968, 11.968, 12.032], "rotation": 270, "texture": "#1"}
			}
		},
		{
			"from": [6.85916, 7, 2.93247],
			"to": [7.85916, 8, 3.93247],
			"rotation": {"angle": 45, "axis": "y", "origin": [8.02583, 7.33333, 3.76581]},
			"faces": {
				"north": {"uv": [2.032, 15.968, 3.968, 14.032], "texture": "#1"},
				"east": {"uv": [0.032, 0.032, 0.968, 0.968], "texture": "#missing"},
				"south": {"uv": [10.032, 13.968, 11.968, 12.032], "rotation": 180, "texture": "#1"},
				"west": {"uv": [5.968, 14.032, 4.032, 15.968], "rotation": 270, "texture": "#1"},
				"up": {"uv": [14.032, 3.968, 15.968, 2.032], "rotation": 270, "texture": "#1"},
				"down": {"uv": [4.032, 13.968, 5.968, 12.032], "rotation": 90, "texture": "#1"}
			}
		},
		{
			"from": [7.85916, 0, 12.55583],
			"to": [8.85916, 2, 13.55583],
			"rotation": {"angle": -45, "axis": "y", "origin": [8.02583, 0.66667, 12.72249]},
			"faces": {
				"north": {"uv": [12.032, 10.032, 13.968, 13.968], "texture": "#1"},
				"east": {"uv": [15.968, 12.032, 14.032, 15.968], "texture": "#1"},
				"south": {"uv": [1.968, 12.032, 0.032, 15.968], "texture": "#1"},
				"west": {"uv": [13.968, 10.032, 12.032, 13.968], "texture": "#1"},
				"up": {"uv": [11.968, 10.032, 10.032, 11.968], "rotation": 90, "texture": "#1"},
				"down": {"uv": [15.968, 0.032, 14.032, 1.968], "rotation": 90, "texture": "#1"}
			}
		},
		{
			"from": [7.85916, 0, 11.55583],
			"to": [8.85916, 1, 12.55583],
			"rotation": {"angle": -45, "axis": "y", "origin": [8.02583, 0.66667, 12.72249]},
			"faces": {
				"north": {"uv": [11.968, 14.032, 10.032, 15.968], "texture": "#1"},
				"east": {"uv": [13.968, 14.032, 12.032, 15.968], "texture": "#1"},
				"south": {"uv": [0.968, 0.968, 0.032, 0.032], "texture": "#missing"},
				"west": {"uv": [10.032, 13.968, 11.968, 12.032], "rotation": 90, "texture": "#1"},
				"up": {"uv": [11.968, 12.032, 10.032, 13.968], "rotation": 90, "texture": "#1"},
				"down": {"uv": [13.968, 0.032, 12.032, 1.968], "rotation": 90, "texture": "#1"}
			}
		},
		{
			"from": [6.85916, 0, 12.55583],
			"to": [7.85916, 1, 13.55583],
			"rotation": {"angle": -45, "axis": "y", "origin": [8.02583, 0.66667, 12.72249]},
			"faces": {
				"north": {"uv": [11.968, 12.032, 10.032, 13.968], "rotation": 180, "texture": "#1"},
				"east": {"uv": [0.968, 0.968, 0.032, 0.032], "texture": "#missing"},
				"south": {"uv": [3.968, 14.032, 2.032, 15.968], "texture": "#1"},
				"west": {"uv": [4.032, 15.968, 5.968, 14.032], "rotation": 270, "texture": "#1"},
				"up": {"uv": [5.968, 12.032, 4.032, 13.968], "rotation": 270, "texture": "#1"},
				"down": {"uv": [15.968, 2.032, 14.032, 3.968], "rotation": 90, "texture": "#1"}
			}
		},
		{
			"from": [7.85916, 6, 12.55583],
			"to": [8.85916, 8, 13.55583],
			"rotation": {"angle": -45, "axis": "y", "origin": [8.02583, 7.33333, 12.72249]},
			"faces": {
				"north": {"uv": [12.032, 13.968, 13.968, 10.032], "texture": "#1"},
				"east": {"uv": [15.968, 15.968, 14.032, 12.032], "texture": "#1"},
				"south": {"uv": [1.968, 15.968, 0.032, 12.032], "texture": "#1"},
				"west": {"uv": [13.968, 13.968, 12.032, 10.032], "texture": "#1"},
				"up": {"uv": [15.968, 1.968, 14.032, 0.032], "rotation": 270, "texture": "#1"},
				"down": {"uv": [11.968, 11.968, 10.032, 10.032], "rotation": 270, "texture": "#1"}
			}
		},
		{
			"from": [7.85916, 7, 11.55583],
			"to": [8.85916, 8, 12.55583],
			"rotation": {"angle": -45, "axis": "y", "origin": [8.02583, 7.33333, 12.72249]},
			"faces": {
				"north": {"uv": [11.968, 15.968, 10.032, 14.032], "texture": "#1"},
				"east": {"uv": [13.968, 15.968, 12.032, 14.032], "texture": "#1"},
				"south": {"uv": [0.968, 0.032, 0.032, 0.968], "texture": "#missing"},
				"west": {"uv": [11.968, 13.968, 10.032, 12.032], "rotation": 90, "texture": "#1"},
				"up": {"uv": [13.968, 1.968, 12.032, 0.032], "rotation": 270, "texture": "#1"},
				"down": {"uv": [11.968, 13.968, 10.032, 12.032], "rotation": 270, "texture": "#1"}
			}
		},
		{
			"from": [6.85916, 7, 12.55583],
			"to": [7.85916, 8, 13.55583],
			"rotation": {"angle": -45, "axis": "y", "origin": [8.02583, 7.33333, 12.72249]},
			"faces": {
				"north": {"uv": [11.968, 13.968, 10.032, 12.032], "rotation": 180, "texture": "#1"},
				"east": {"uv": [0.968, 0.032, 0.032, 0.968], "texture": "#missing"},
				"south": {"uv": [3.968, 15.968, 2.032, 14.032], "texture": "#1"},
				"west": {"uv": [5.968, 15.968, 4.032, 14.032], "rotation": 270, "texture": "#1"},
				"up": {"uv": [15.968, 3.968, 14.032, 2.032], "rotation": 270, "texture": "#1"},
				"down": {"uv": [5.968, 13.968, 4.032, 12.032], "rotation": 90, "texture": "#1"}
			}
		}
	],
	"display": {
		"thirdperson_righthand": {
			"translation": [0, 3, 0.5],
			"scale": [0.375, 0.375, 0.375]
		},
		"thirdperson_lefthand": {
			"translation": [0, 3, 0.5],
			"scale": [0.375, 0.375, 0.375]
		},
		"firstperson_righthand": {
			"translation": [0, 3, 0.5],
			"scale": [0.5, 0.5, 0.5]
		},
		"firstperson_lefthand": {
			"translation": [0, 3, 0.5],
			"scale": [0.5, 0.5, 0.5]
		},
		"ground": {
			"scale": [0.5, 0.5, 0.5]
		},
		"gui": {
			"rotation": [25, 0, 0],
			"translation": [0, 4, 0]
		},
		"head": {
			"rotation": [0, 45, 0],
			"translation": [0, 8, 0],
			"scale": [2, 2, 2]
		},
		"fixed": {
			"rotation": [0, 45, 0],
			"translation": [-0.25, 4, 0]
		}
	},
	"groups": [
		{
			"name": "box",
			"origin": [6.5, 2.5, 6.5],
			"children": [0, 1, 2, 3, 4, 5]
		},
		{
			"name": "corners",
			"origin": [8, 8, 8],
			"children": [
				{
					"name": "bottomwest",
					"origin": [8, 8, 8],
					"children": [6, 7, 8]
				},
				{
					"name": "topwest",
					"origin": [8, 8, 8],
					"children": [9, 10, 11]
				},
				{
					"name": "bottomeast",
					"origin": [8, 8, 8],
					"children": [12, 13, 14]
				},
				{
					"name": "topeast",
					"origin": [8, 8, 8],
					"children": [15, 16, 17]
				},
				{
					"name": "bottomnorth",
					"origin": [8, 8, 8],
					"children": [18, 19, 20]
				},
				{
					"name": "topnorth",
					"origin": [8, 8, 8],
					"children": [21, 22, 23]
				},
				{
					"name": "bottomsouth",
					"origin": [8, 8, 8],
					"children": [24, 25, 26]
				},
				{
					"name": "topsouth",
					"origin": [8, 8, 8],
					"children": [27, 28, 29]
				}
			]
		}
	]
}