{
  "parent": "builtin/entity",
  "display": {

    "thirdperson_righthand": {
      "rotation": [0, 0, 0],
      "translation": [0, -1.5, 0],
      "scale": [1, 1, 1]
    },

    "thirdperson_lefthand": {
      "rotation": [0, 0, 0],
      "translation": [0, -1.5, 0],
      "scale": [1, 1, 1]
    },

    "firstperson_righthand": {
      "rotation": [0, 0, 0],
      "translation": [0, 0, 0],
      "scale": [1, 1, 1]
    },
    "firstperson_lefthand": {
      "rotation": [0, 0, 0],
      "translation": [0, 0, 0],
      "scale": [1, 1, 1]
    },
    "gui": {
      "rotation": [0, 0, -45],
      "translation": [0, 0, 0],
      "scale": [1, 1, 1]
    },

    "ground": {
      "rotation": [90, 0, 90],
      "translation":[0, 0, 0],
      "scale": [1, 1, 1]
    },

    "fixed": {
      "rotation": [180, 180, 0],
      "translation": [0, 0, 0],
      "scale": [0.6, 0.6, 0.6]
    },
    "head": {
      "rotation": [0, 90, 0],
      "translation": [0, 0, 0]
    }
  }

}