{
  "type": "minecraft:crafting_shaped",
  "pattern":
  [
    "   ",
    " b ",
    " b "
  ],
  "key":
  {
    "b": {
      "item" : "galaxysedge:blueprint"
    }
  },
  "result": {
    "item": "galaxysedge:pommel_blueprint",
    "count": 1
  }
}