{
  "type": "minecraft:crafting_shaped",
  "pattern":
  [
    " i ",
    "iri",
    "iri"
  ],
  "key":
  {
    "i": {
      "item" : "minecraft:iron_ingot"
    },
    "r": {
      "item": "minecraft:redstone"
    }
  },
  "result": {
    "item": "galaxysedge:power_cell",
    "count": 1
  }
}